<?xml version="1.0" encoding="utf-8"?>
<!-- Generator: Adobe Illustrator 19.2.1, SVG Export Plug-In . SVG Version: 6.00 Build 0)  -->
<svg version="1.1" id="Layer_1" xmlns="http://www.w3.org/2000/svg" xmlns:xlink="http://www.w3.org/1999/xlink" x="0px" y="0px"
	 viewBox="0 0 48 48" style="enable-background:new 0 0 48 48;" xml:space="preserve">
<style type="text/css">
	.st0{fill:#231F20;}
	.st1{fill:none;stroke:#231F20;}
</style>
<title>AA_Assets-Icon</title>
<g>
	<path class="st0" d="M24,1c5.2,0,9.5,4.3,9.5,9.5c0,5.2-4.3,9.5-9.5,9.5c-2.1,0-4.2-0.7-5.8-2c-2.3-1.8-3.7-4.5-3.7-7.5
		C14.5,5.3,18.8,1,24,1L24,1 M24,0C24,0,24,0,24,0c-5.8,0-10.5,4.7-10.5,10.5c0,3.2,1.5,6.3,4,8.3c1.8,1.4,4.1,2.2,6.5,2.2
		c0,0,0,0,0,0c5.8,0,10.5-4.7,10.5-10.5C34.5,4.7,29.8,0,24,0L24,0z"/>
</g>
<path class="st1" d="M43,47.5H5c0,0,1.1-19,13.3-28.2"/>
<path class="st1" d="M5,47.5h38c0,0-1.1-19-13.3-28.2"/>
</svg>
