<?xml version="1.0" encoding="utf-8"?>
<!-- Generator: Adobe Illustrator 19.2.1, SVG Export Plug-In . SVG Version: 6.00 Build 0)  -->
<svg version="1.1" id="Layer_1" xmlns="http://www.w3.org/2000/svg" xmlns:xlink="http://www.w3.org/1999/xlink" x="0px" y="0px"
	 viewBox="0 0 56 48" style="enable-background:new 0 0 56 48;" xml:space="preserve">
<style type="text/css">
	.st0{fill:none;stroke:#231F20;}
</style>
<title>AA_Assets-Icon</title>
<polyline class="st0" points="4,10.2 0.5,10.2 0.5,20.2 4,20.2 "/>
<path class="st0" d="M5.4,22.2c0,0-0.9,14.5,1.9,25.2h6.6c-2.4-8.8-2.1-21-1.9-24.3"/>
<path class="st0" d="M40.5,17v12.7c-17-7.4-36-7.4-36-7.4V8.2c0,0,19,0,36-7.4V17"/>
<line class="st0" x1="47" y1="14.5" x2="56" y2="14.5"/>
<line class="st0" x1="45" y1="9.9" x2="51" y2="5.4"/>
<line class="st0" x1="45" y1="19.4" x2="51" y2="23.9"/>
<path class="st0" d="M40.5,21.6c6-6.7,0-11.3,0-11.3V21.6z"/>
</svg>
